^D:\Andrei\OneDrive\Учёба\Политех\Математическая логика\Buddy\New folder\A (A2 N7.2)\Code\MathLogCourceWork\MathLogCourceWork.vcxproj
D:\Andrei\OneDrive\Учёба\Политех\Математическая логика\Buddy\New folder\A (A2 N7.2)\Code\Release\MathLogCourceWork.ipdb
D:\Andrei\OneDrive\Учёба\Политех\Математическая логика\Buddy\New folder\A (A2 N7.2)\Code\Release\MathLogCourceWork.iobj
^D:\Andrei\OneDrive\Учёба\Политех\Математическая логика\Buddy\New folder\A (A2 N7.2)\Code\MathLogCourceWork\MathLogCourceWork.vcxproj
D:\Andrei\OneDrive\Учёба\Политех\Математическая логика\Buddy\New folder\A (A2 N7.2)\Code\Release\MathLogCourceWork.ipdb
D:\Andrei\OneDrive\Учёба\Политех\Математическая логика\Buddy\New folder\A (A2 N7.2)\Code\Release\MathLogCourceWork.iobj
^D:\Andrei\OneDrive\Учёба\Политех\Математическая логика\Buddy\New folder\A (A2 N7.2)\Code\MathLogCourceWork\MathLogCourceWork.vcxproj
D:\Andrei\OneDrive\Учёба\Политех\Математическая логика\Buddy\New folder\A (A2 N7.2)\Code\Release\MathLogCourceWork.ipdb
D:\Andrei\OneDrive\Учёба\Политех\Математическая логика\Buddy\New folder\A (A2 N7.2)\Code\Release\MathLogCourceWork.iobj
^D:\Andrei\OneDrive\Учёба\Политех\Математическая логика\Buddy\New folder\A (A2 N7.2)\Code\MathLogCourceWork\MathLogCourceWork.vcxproj
D:\Andrei\OneDrive\Учёба\Политех\Математическая логика\Buddy\New folder\A (A2 N7.2)\Code\Release\MathLogCourceWork.ipdb
D:\Andrei\OneDrive\Учёба\Политех\Математическая логика\Buddy\New folder\A (A2 N7.2)\Code\Release\MathLogCourceWork.iobj
^D:\Andrei\OneDrive\Учёба\Политех\Математическая логика\Buddy\New folder\A (A2 N7.2)\Code\MathLogCourceWork\MathLogCourceWork.vcxproj
D:\Andrei\OneDrive\Учёба\Политех\Математическая логика\Buddy\New folder\A (A2 N7.2)\Code\Release\MathLogCourceWork.ipdb
D:\Andrei\OneDrive\Учёба\Политех\Математическая логика\Buddy\New folder\A (A2 N7.2)\Code\Release\MathLogCourceWork.iobj
^D:\Andrei\OneDrive\Учёба\Политех\Математическая логика\Buddy\New folder\A (A2 N7.2)\Code\MathLogCourceWork\MathLogCourceWork.vcxproj
D:\Andrei\OneDrive\Учёба\Политех\Математическая логика\Buddy\New folder\A (A2 N7.2)\Code\Release\MathLogCourceWork.ipdb
D:\Andrei\OneDrive\Учёба\Политех\Математическая логика\Buddy\New folder\A (A2 N7.2)\Code\Release\MathLogCourceWork.iobj
^D:\Andrei\OneDrive\Учёба\Политех\Математическая логика\Buddy\New folder\A (A2 N7.2)\Code\MathLogCourceWork\MathLogCourceWork.vcxproj
D:\Andrei\OneDrive\Учёба\Политех\Математическая логика\Buddy\New folder\A (A2 N7.2)\Code\Release\MathLogCourceWork.ipdb
D:\Andrei\OneDrive\Учёба\Политех\Математическая логика\Buddy\New folder\A (A2 N7.2)\Code\Release\MathLogCourceWork.iobj
^D:\Andrei\OneDrive\Учёба\Политех\Математическая логика\Buddy\New folder\A (A2 N7.2)\Code\MathLogCourceWork\MathLogCourceWork.vcxproj
D:\Andrei\OneDrive\Учёба\Политех\Математическая логика\Buddy\New folder\A (A2 N7.2)\Code\Release\MathLogCourceWork.ipdb
D:\Andrei\OneDrive\Учёба\Политех\Математическая логика\Buddy\New folder\A (A2 N7.2)\Code\Release\MathLogCourceWork.iobj
^D:\Andrei\OneDrive\Учёба\Политех\Математическая логика\Buddy\New folder\A (A2 N7.2)\Code\MathLogCourceWork\MathLogCourceWork.vcxproj
D:\Andrei\OneDrive\Учёба\Политех\Математическая логика\Buddy\New folder\A (A2 N7.2)\Code\Release\MathLogCourceWork.ipdb
D:\Andrei\OneDrive\Учёба\Политех\Математическая логика\Buddy\New folder\A (A2 N7.2)\Code\Release\MathLogCourceWork.iobj
^D:\Andrei\OneDrive\Учёба\Политех\Математическая логика\Buddy\New folder\A (A2 N7.2)\Code\MathLogCourceWork\MathLogCourceWork.vcxproj
D:\Andrei\OneDrive\Учёба\Политех\Математическая логика\Buddy\New folder\A (A2 N7.2)\Code\Release\MathLogCourceWork.ipdb
D:\Andrei\OneDrive\Учёба\Политех\Математическая логика\Buddy\New folder\A (A2 N7.2)\Code\Release\MathLogCourceWork.iobj
