^D:\TKA4U\ONEDRIVE\УЧЁБА\ПОЛИТЕХ\МАТЕМАТИЧЕСКАЯ ЛОГИКА\BUDDY КУРСОВАЯ\A7 N1=3 N2=6 N3=4 N4=2 ГОД 2019\CODE\MATHLOGCOURCEWORK\DEBUG\MAIN.OBJ
/OUT:"D:\TKA4U\ONEDRIVE\УЧЁБА\ПОЛИТЕХ\МАТЕМАТИЧЕСКАЯ ЛОГИКА\BUDDY КУРСОВАЯ\A7 N1=3 N2=6 N3=4 N4=2 ГОД 2019\CODE\DEBUG\MATHLOGCOURCEWORK.EXE" /INCREMENTAL /NOLOGO KERNEL32.LIB USER32.LIB GDI32.LIB WINSPOOL.LIB COMDLG32.LIB ADVAPI32.LIB SHELL32.LIB OLE32.LIB OLEAUT32.LIB UUID.LIB ODBC32.LIB ODBCCP32.LIB /MANIFEST /MANIFESTUAC:"level='asInvoker' uiAccess='false'" /manifest:embed /DEBUG:FASTLINK /PDB:"D:\TKA4U\ONEDRIVE\УЧЁБА\ПОЛИТЕХ\МАТЕМАТИЧЕСКАЯ ЛОГИКА\BUDDY КУРСОВАЯ\A7 N1=3 N2=6 N3=4 N4=2 ГОД 2019\CODE\DEBUG\MATHLOGCOURCEWORK.PDB" /TLBID:1 /DYNAMICBASE /NXCOMPAT /IMPLIB:"D:\TKA4U\ONEDRIVE\УЧЁБА\ПОЛИТЕХ\МАТЕМАТИЧЕСКАЯ ЛОГИКА\BUDDY КУРСОВАЯ\A7 N1=3 N2=6 N3=4 N4=2 ГОД 2019\CODE\DEBUG\MATHLOGCOURCEWORK.LIB" /MACHINE:X86 DEBUG\MAIN.OBJ
^D:\TKA4U\ONEDRIVE\УЧЁБА\ПОЛИТЕХ\МАТЕМАТИЧЕСКАЯ ЛОГИКА\BUDDY КУРСОВАЯ\A6 N1=4 N2=5 N3=4 N4=2 ГОД 2019\CODE\MATHLOGCOURCEWORK\DEBUG\MAIN.OBJ
/OUT:"D:\TKA4U\ONEDRIVE\УЧЁБА\ПОЛИТЕХ\МАТЕМАТИЧЕСКАЯ ЛОГИКА\BUDDY КУРСОВАЯ\A6 N1=4 N2=5 N3=4 N4=2 ГОД 2019\CODE\DEBUG\MATHLOGCOURCEWORK.EXE" /INCREMENTAL /NOLOGO KERNEL32.LIB USER32.LIB GDI32.LIB WINSPOOL.LIB COMDLG32.LIB ADVAPI32.LIB SHELL32.LIB OLE32.LIB OLEAUT32.LIB UUID.LIB ODBC32.LIB ODBCCP32.LIB /MANIFEST /MANIFESTUAC:"level='asInvoker' uiAccess='false'" /manifest:embed /DEBUG:FASTLINK /PDB:"D:\TKA4U\ONEDRIVE\УЧЁБА\ПОЛИТЕХ\МАТЕМАТИЧЕСКАЯ ЛОГИКА\BUDDY КУРСОВАЯ\A6 N1=4 N2=5 N3=4 N4=2 ГОД 2019\CODE\DEBUG\MATHLOGCOURCEWORK.PDB" /TLBID:1 /DYNAMICBASE /NXCOMPAT /IMPLIB:"D:\TKA4U\ONEDRIVE\УЧЁБА\ПОЛИТЕХ\МАТЕМАТИЧЕСКАЯ ЛОГИКА\BUDDY КУРСОВАЯ\A6 N1=4 N2=5 N3=4 N4=2 ГОД 2019\CODE\DEBUG\MATHLOGCOURCEWORK.LIB" /MACHINE:X86 DEBUG\MAIN.OBJ
^C:\USERS\YARIC\DESKTOP\A6 N1=4 N2=5 N3=4 N4=2 ГОД 2019\CODE\MATHLOGCOURCEWORK\DEBUG\MAIN.OBJ
/OUT:"C:\USERS\YARIC\DESKTOP\A6 N1=4 N2=5 N3=4 N4=2 ГОД 2019\CODE\DEBUG\MATHLOGCOURCEWORK.EXE" /INCREMENTAL /NOLOGO /LIBPATH:"C:\USERS\YARIC\DESKTOP\BUDDY-MASTER\OUT\BUILD\X64-DEBUG (ПО УМОЛЧАНИЮ)\SRC" BDD.LIB KERNEL32.LIB USER32.LIB GDI32.LIB WINSPOOL.LIB COMDLG32.LIB ADVAPI32.LIB SHELL32.LIB OLE32.LIB OLEAUT32.LIB UUID.LIB ODBC32.LIB ODBCCP32.LIB /MANIFEST /MANIFESTUAC:"level='asInvoker' uiAccess='false'" /manifest:embed /DEBUG:FASTLINK /PDB:"C:\USERS\YARIC\DESKTOP\A6 N1=4 N2=5 N3=4 N4=2 ГОД 2019\CODE\DEBUG\MATHLOGCOURCEWORK.PDB" /TLBID:1 /DYNAMICBASE /NXCOMPAT /IMPLIB:"C:\USERS\YARIC\DESKTOP\A6 N1=4 N2=5 N3=4 N4=2 ГОД 2019\CODE\DEBUG\MATHLOGCOURCEWORK.LIB" /MACHINE:X86 DEBUG\MAIN.OBJ
