^C:\USERS\YARIC\DESKTOP\A6 N1=4 N2=5 N3=4 N4=2 ГОД 2019\CODE\MATHLOGICCOURSEWORK\MAIN.CPP
C:\USERS\YARIC\DESKTOP\A6 N1=4 N2=5 N3=4 N4=2 год 2019\CODE\MATHLOGICCOURSEWORK\X64\DEBUG\VC142.PDB
C:\USERS\YARIC\DESKTOP\A6 N1=4 N2=5 N3=4 N4=2 год 2019\CODE\MATHLOGICCOURSEWORK\X64\DEBUG\VC142.IDB
C:\USERS\YARIC\DESKTOP\A6 N1=4 N2=5 N3=4 N4=2 год 2019\CODE\MATHLOGICCOURSEWORK\X64\DEBUG\MAIN.OBJ
